(['C:\\Users\\Zack\\Documents\\Python\\cybv473_website_scraper\\BossungZ_WK6_Assignment8.py'],
 ['C:\\Users\\Zack\\Documents\\Python\\cybv473_website_scraper',
  'C:\\Users\\Zack\\Documents\\Python\\cybv473_website_scraper'],
 ['codecs'],
 [],
 [],
 [],
 False,
 False,
 '3.7.3 (v3.7.3:ef4ec6ed12, Mar 25 2019, 21:26:53) [MSC v.1916 32 bit (Intel)]',
 [('pyi_rth_certifi',
   'c:\\users\\zack\\appdata\\local\\programs\\python\\python37-32\\lib\\site-packages\\PyInstaller\\loader\\rthooks\\pyi_rth_certifi.py',
   'PYSOURCE'),
  ('BossungZ_WK6_Assignment8',
   'C:\\Users\\Zack\\Documents\\Python\\cybv473_website_scraper\\BossungZ_WK6_Assignment8.py',
   'PYSOURCE')],
 [('ssl',
   'c:\\users\\zack\\appdata\\local\\programs\\python\\python37-32\\lib\\ssl.py',
   'PYMODULE'),
  ('calendar',
   'c:\\users\\zack\\appdata\\local\\programs\\python\\python37-32\\lib\\calendar.py',
   'PYMODULE'),
  ('argparse',
   'c:\\users\\zack\\appdata\\local\\programs\\python\\python37-32\\lib\\argparse.py',
   'PYMODULE'),
  ('textwrap',
   'c:\\users\\zack\\appdata\\local\\programs\\python\\python37-32\\lib\\textwrap.py',
   'PYMODULE'),
  ('copy',
   'c:\\users\\zack\\appdata\\local\\programs\\python\\python37-32\\lib\\copy.py',
   'PYMODULE'),
  ('gettext',
   'c:\\users\\zack\\appdata\\local\\programs\\python\\python37-32\\lib\\gettext.py',
   'PYMODULE'),
  ('struct',
   'c:\\users\\zack\\appdata\\local\\programs\\python\\python37-32\\lib\\struct.py',
   'PYMODULE'),
  ('datetime',
   'c:\\users\\zack\\appdata\\local\\programs\\python\\python37-32\\lib\\datetime.py',
   'PYMODULE'),
  ('_strptime',
   'c:\\users\\zack\\appdata\\local\\programs\\python\\python37-32\\lib\\_strptime.py',
   'PYMODULE'),
  ('base64',
   'c:\\users\\zack\\appdata\\local\\programs\\python\\python37-32\\lib\\base64.py',
   'PYMODULE'),
  ('getopt',
   'c:\\users\\zack\\appdata\\local\\programs\\python\\python37-32\\lib\\getopt.py',
   'PYMODULE'),
  ('socket',
   'c:\\users\\zack\\appdata\\local\\programs\\python\\python37-32\\lib\\socket.py',
   'PYMODULE'),
  ('selectors',
   'c:\\users\\zack\\appdata\\local\\programs\\python\\python37-32\\lib\\selectors.py',
   'PYMODULE'),
  ('stringprep',
   'c:\\users\\zack\\appdata\\local\\programs\\python\\python37-32\\lib\\stringprep.py',
   'PYMODULE'),
  ('bz2',
   'c:\\users\\zack\\appdata\\local\\programs\\python\\python37-32\\lib\\bz2.py',
   'PYMODULE'),
  ('threading',
   'c:\\users\\zack\\appdata\\local\\programs\\python\\python37-32\\lib\\threading.py',
   'PYMODULE'),
  ('_threading_local',
   'c:\\users\\zack\\appdata\\local\\programs\\python\\python37-32\\lib\\_threading_local.py',
   'PYMODULE'),
  ('contextlib',
   'c:\\users\\zack\\appdata\\local\\programs\\python\\python37-32\\lib\\contextlib.py',
   'PYMODULE'),
  ('_compression',
   'c:\\users\\zack\\appdata\\local\\programs\\python\\python37-32\\lib\\_compression.py',
   'PYMODULE'),
  ('quopri',
   'c:\\users\\zack\\appdata\\local\\programs\\python\\python37-32\\lib\\quopri.py',
   'PYMODULE'),
  ('typing',
   'c:\\users\\zack\\appdata\\local\\programs\\python\\python37-32\\lib\\typing.py',
   'PYMODULE'),
  ('_py_abc',
   'c:\\users\\zack\\appdata\\local\\programs\\python\\python37-32\\lib\\_py_abc.py',
   'PYMODULE'),
  ('doctest',
   'c:\\users\\zack\\appdata\\local\\programs\\python\\python37-32\\lib\\doctest.py',
   'PYMODULE'),
  ('unittest',
   'c:\\users\\zack\\appdata\\local\\programs\\python\\python37-32\\lib\\unittest\\__init__.py',
   'PYMODULE'),
  ('ntpath',
   'c:\\users\\zack\\appdata\\local\\programs\\python\\python37-32\\lib\\ntpath.py',
   'PYMODULE'),
  ('string',
   'c:\\users\\zack\\appdata\\local\\programs\\python\\python37-32\\lib\\string.py',
   'PYMODULE'),
  ('genericpath',
   'c:\\users\\zack\\appdata\\local\\programs\\python\\python37-32\\lib\\genericpath.py',
   'PYMODULE'),
  ('stat',
   'c:\\users\\zack\\appdata\\local\\programs\\python\\python37-32\\lib\\stat.py',
   'PYMODULE'),
  ('unittest.signals',
   'c:\\users\\zack\\appdata\\local\\programs\\python\\python37-32\\lib\\unittest\\signals.py',
   'PYMODULE'),
  ('signal',
   'c:\\users\\zack\\appdata\\local\\programs\\python\\python37-32\\lib\\signal.py',
   'PYMODULE'),
  ('unittest.main',
   'c:\\users\\zack\\appdata\\local\\programs\\python\\python37-32\\lib\\unittest\\main.py',
   'PYMODULE'),
  ('unittest.runner',
   'c:\\users\\zack\\appdata\\local\\programs\\python\\python37-32\\lib\\unittest\\runner.py',
   'PYMODULE'),
  ('unittest.loader',
   'c:\\users\\zack\\appdata\\local\\programs\\python\\python37-32\\lib\\unittest\\loader.py',
   'PYMODULE'),
  ('fnmatch',
   'c:\\users\\zack\\appdata\\local\\programs\\python\\python37-32\\lib\\fnmatch.py',
   'PYMODULE'),
  ('posixpath',
   'c:\\users\\zack\\appdata\\local\\programs\\python\\python37-32\\lib\\posixpath.py',
   'PYMODULE'),
  ('unittest.suite',
   'c:\\users\\zack\\appdata\\local\\programs\\python\\python37-32\\lib\\unittest\\suite.py',
   'PYMODULE'),
  ('unittest.case',
   'c:\\users\\zack\\appdata\\local\\programs\\python\\python37-32\\lib\\unittest\\case.py',
   'PYMODULE'),
  ('pprint',
   'c:\\users\\zack\\appdata\\local\\programs\\python\\python37-32\\lib\\pprint.py',
   'PYMODULE'),
  ('logging',
   'c:\\users\\zack\\appdata\\local\\programs\\python\\python37-32\\lib\\logging\\__init__.py',
   'PYMODULE'),
  ('pickle',
   'c:\\users\\zack\\appdata\\local\\programs\\python\\python37-32\\lib\\pickle.py',
   'PYMODULE'),
  ('_compat_pickle',
   'c:\\users\\zack\\appdata\\local\\programs\\python\\python37-32\\lib\\_compat_pickle.py',
   'PYMODULE'),
  ('unittest.result',
   'c:\\users\\zack\\appdata\\local\\programs\\python\\python37-32\\lib\\unittest\\result.py',
   'PYMODULE'),
  ('unittest.util',
   'c:\\users\\zack\\appdata\\local\\programs\\python\\python37-32\\lib\\unittest\\util.py',
   'PYMODULE'),
  ('pdb',
   'c:\\users\\zack\\appdata\\local\\programs\\python\\python37-32\\lib\\pdb.py',
   'PYMODULE'),
  ('pydoc',
   'c:\\users\\zack\\appdata\\local\\programs\\python\\python37-32\\lib\\pydoc.py',
   'PYMODULE'),
  ('webbrowser',
   'c:\\users\\zack\\appdata\\local\\programs\\python\\python37-32\\lib\\webbrowser.py',
   'PYMODULE'),
  ('shutil',
   'c:\\users\\zack\\appdata\\local\\programs\\python\\python37-32\\lib\\shutil.py',
   'PYMODULE'),
  ('zipfile',
   'c:\\users\\zack\\appdata\\local\\programs\\python\\python37-32\\lib\\zipfile.py',
   'PYMODULE'),
  ('py_compile',
   'c:\\users\\zack\\appdata\\local\\programs\\python\\python37-32\\lib\\py_compile.py',
   'PYMODULE'),
  ('tarfile',
   'c:\\users\\zack\\appdata\\local\\programs\\python\\python37-32\\lib\\tarfile.py',
   'PYMODULE'),
  ('gzip',
   'c:\\users\\zack\\appdata\\local\\programs\\python\\python37-32\\lib\\gzip.py',
   'PYMODULE'),
  ('lzma',
   'c:\\users\\zack\\appdata\\local\\programs\\python\\python37-32\\lib\\lzma.py',
   'PYMODULE'),
  ('email.message',
   'c:\\users\\zack\\appdata\\local\\programs\\python\\python37-32\\lib\\email\\message.py',
   'PYMODULE'),
  ('email.policy',
   'c:\\users\\zack\\appdata\\local\\programs\\python\\python37-32\\lib\\email\\policy.py',
   'PYMODULE'),
  ('email.contentmanager',
   'c:\\users\\zack\\appdata\\local\\programs\\python\\python37-32\\lib\\email\\contentmanager.py',
   'PYMODULE'),
  ('email.quoprimime',
   'c:\\users\\zack\\appdata\\local\\programs\\python\\python37-32\\lib\\email\\quoprimime.py',
   'PYMODULE'),
  ('email.headerregistry',
   'c:\\users\\zack\\appdata\\local\\programs\\python\\python37-32\\lib\\email\\headerregistry.py',
   'PYMODULE'),
  ('email._header_value_parser',
   'c:\\users\\zack\\appdata\\local\\programs\\python\\python37-32\\lib\\email\\_header_value_parser.py',
   'PYMODULE'),
  ('urllib',
   'c:\\users\\zack\\appdata\\local\\programs\\python\\python37-32\\lib\\urllib\\__init__.py',
   'PYMODULE'),
  ('email.iterators',
   'c:\\users\\zack\\appdata\\local\\programs\\python\\python37-32\\lib\\email\\iterators.py',
   'PYMODULE'),
  ('email.generator',
   'c:\\users\\zack\\appdata\\local\\programs\\python\\python37-32\\lib\\email\\generator.py',
   'PYMODULE'),
  ('random',
   'c:\\users\\zack\\appdata\\local\\programs\\python\\python37-32\\lib\\random.py',
   'PYMODULE'),
  ('bisect',
   'c:\\users\\zack\\appdata\\local\\programs\\python\\python37-32\\lib\\bisect.py',
   'PYMODULE'),
  ('hashlib',
   'c:\\users\\zack\\appdata\\local\\programs\\python\\python37-32\\lib\\hashlib.py',
   'PYMODULE'),
  ('email._encoded_words',
   'c:\\users\\zack\\appdata\\local\\programs\\python\\python37-32\\lib\\email\\_encoded_words.py',
   'PYMODULE'),
  ('email.charset',
   'c:\\users\\zack\\appdata\\local\\programs\\python\\python37-32\\lib\\email\\charset.py',
   'PYMODULE'),
  ('email.encoders',
   'c:\\users\\zack\\appdata\\local\\programs\\python\\python37-32\\lib\\email\\encoders.py',
   'PYMODULE'),
  ('email.base64mime',
   'c:\\users\\zack\\appdata\\local\\programs\\python\\python37-32\\lib\\email\\base64mime.py',
   'PYMODULE'),
  ('email._policybase',
   'c:\\users\\zack\\appdata\\local\\programs\\python\\python37-32\\lib\\email\\_policybase.py',
   'PYMODULE'),
  ('email.header',
   'c:\\users\\zack\\appdata\\local\\programs\\python\\python37-32\\lib\\email\\header.py',
   'PYMODULE'),
  ('email.errors',
   'c:\\users\\zack\\appdata\\local\\programs\\python\\python37-32\\lib\\email\\errors.py',
   'PYMODULE'),
  ('email.utils',
   'c:\\users\\zack\\appdata\\local\\programs\\python\\python37-32\\lib\\email\\utils.py',
   'PYMODULE'),
  ('email._parseaddr',
   'c:\\users\\zack\\appdata\\local\\programs\\python\\python37-32\\lib\\email\\_parseaddr.py',
   'PYMODULE'),
  ('email',
   'c:\\users\\zack\\appdata\\local\\programs\\python\\python37-32\\lib\\email\\__init__.py',
   'PYMODULE'),
  ('email.parser',
   'c:\\users\\zack\\appdata\\local\\programs\\python\\python37-32\\lib\\email\\parser.py',
   'PYMODULE'),
  ('email.feedparser',
   'c:\\users\\zack\\appdata\\local\\programs\\python\\python37-32\\lib\\email\\feedparser.py',
   'PYMODULE'),
  ('uu',
   'c:\\users\\zack\\appdata\\local\\programs\\python\\python37-32\\lib\\uu.py',
   'PYMODULE'),
  ('optparse',
   'c:\\users\\zack\\appdata\\local\\programs\\python\\python37-32\\lib\\optparse.py',
   'PYMODULE'),
  ('http.server',
   'c:\\users\\zack\\appdata\\local\\programs\\python\\python37-32\\lib\\http\\server.py',
   'PYMODULE'),
  ('http',
   'c:\\users\\zack\\appdata\\local\\programs\\python\\python37-32\\lib\\http\\__init__.py',
   'PYMODULE'),
  ('socketserver',
   'c:\\users\\zack\\appdata\\local\\programs\\python\\python37-32\\lib\\socketserver.py',
   'PYMODULE'),
  ('mimetypes',
   'c:\\users\\zack\\appdata\\local\\programs\\python\\python37-32\\lib\\mimetypes.py',
   'PYMODULE'),
  ('http.client',
   'c:\\users\\zack\\appdata\\local\\programs\\python\\python37-32\\lib\\http\\client.py',
   'PYMODULE'),
  ('html',
   'c:\\users\\zack\\appdata\\local\\programs\\python\\python37-32\\lib\\html\\__init__.py',
   'PYMODULE'),
  ('html.entities',
   'c:\\users\\zack\\appdata\\local\\programs\\python\\python37-32\\lib\\html\\entities.py',
   'PYMODULE'),
  ('pydoc_data.topics',
   'c:\\users\\zack\\appdata\\local\\programs\\python\\python37-32\\lib\\pydoc_data\\topics.py',
   'PYMODULE'),
  ('pydoc_data',
   'c:\\users\\zack\\appdata\\local\\programs\\python\\python37-32\\lib\\pydoc_data\\__init__.py',
   'PYMODULE'),
  ('tty',
   'c:\\users\\zack\\appdata\\local\\programs\\python\\python37-32\\lib\\tty.py',
   'PYMODULE'),
  ('subprocess',
   'c:\\users\\zack\\appdata\\local\\programs\\python\\python37-32\\lib\\subprocess.py',
   'PYMODULE'),
  ('tempfile',
   'c:\\users\\zack\\appdata\\local\\programs\\python\\python37-32\\lib\\tempfile.py',
   'PYMODULE'),
  ('urllib.parse',
   'c:\\users\\zack\\appdata\\local\\programs\\python\\python37-32\\lib\\urllib\\parse.py',
   'PYMODULE'),
  ('tokenize',
   'c:\\users\\zack\\appdata\\local\\programs\\python\\python37-32\\lib\\tokenize.py',
   'PYMODULE'),
  ('token',
   'c:\\users\\zack\\appdata\\local\\programs\\python\\python37-32\\lib\\token.py',
   'PYMODULE'),
  ('platform',
   'c:\\users\\zack\\appdata\\local\\programs\\python\\python37-32\\lib\\platform.py',
   'PYMODULE'),
  ('plistlib',
   'c:\\users\\zack\\appdata\\local\\programs\\python\\python37-32\\lib\\plistlib.py',
   'PYMODULE'),
  ('xml.parsers.expat',
   'c:\\users\\zack\\appdata\\local\\programs\\python\\python37-32\\lib\\xml\\parsers\\expat.py',
   'PYMODULE'),
  ('xml.parsers',
   'c:\\users\\zack\\appdata\\local\\programs\\python\\python37-32\\lib\\xml\\parsers\\__init__.py',
   'PYMODULE'),
  ('xml',
   'c:\\users\\zack\\appdata\\local\\programs\\python\\python37-32\\lib\\xml\\__init__.py',
   'PYMODULE'),
  ('xml.sax.expatreader',
   'c:\\users\\zack\\appdata\\local\\programs\\python\\python37-32\\lib\\xml\\sax\\expatreader.py',
   'PYMODULE'),
  ('xml.sax.saxutils',
   'c:\\users\\zack\\appdata\\local\\programs\\python\\python37-32\\lib\\xml\\sax\\saxutils.py',
   'PYMODULE'),
  ('urllib.request',
   'c:\\users\\zack\\appdata\\local\\programs\\python\\python37-32\\lib\\urllib\\request.py',
   'PYMODULE'),
  ('getpass',
   'c:\\users\\zack\\appdata\\local\\programs\\python\\python37-32\\lib\\getpass.py',
   'PYMODULE'),
  ('nturl2path',
   'c:\\users\\zack\\appdata\\local\\programs\\python\\python37-32\\lib\\nturl2path.py',
   'PYMODULE'),
  ('ftplib',
   'c:\\users\\zack\\appdata\\local\\programs\\python\\python37-32\\lib\\ftplib.py',
   'PYMODULE'),
  ('netrc',
   'c:\\users\\zack\\appdata\\local\\programs\\python\\python37-32\\lib\\netrc.py',
   'PYMODULE'),
  ('http.cookiejar',
   'c:\\users\\zack\\appdata\\local\\programs\\python\\python37-32\\lib\\http\\cookiejar.py',
   'PYMODULE'),
  ('urllib.response',
   'c:\\users\\zack\\appdata\\local\\programs\\python\\python37-32\\lib\\urllib\\response.py',
   'PYMODULE'),
  ('urllib.error',
   'c:\\users\\zack\\appdata\\local\\programs\\python\\python37-32\\lib\\urllib\\error.py',
   'PYMODULE'),
  ('xml.sax',
   'c:\\users\\zack\\appdata\\local\\programs\\python\\python37-32\\lib\\xml\\sax\\__init__.py',
   'PYMODULE'),
  ('xml.sax.handler',
   'c:\\users\\zack\\appdata\\local\\programs\\python\\python37-32\\lib\\xml\\sax\\handler.py',
   'PYMODULE'),
  ('xml.sax._exceptions',
   'c:\\users\\zack\\appdata\\local\\programs\\python\\python37-32\\lib\\xml\\sax\\_exceptions.py',
   'PYMODULE'),
  ('xml.sax.xmlreader',
   'c:\\users\\zack\\appdata\\local\\programs\\python\\python37-32\\lib\\xml\\sax\\xmlreader.py',
   'PYMODULE'),
  ('pkgutil',
   'c:\\users\\zack\\appdata\\local\\programs\\python\\python37-32\\lib\\pkgutil.py',
   'PYMODULE'),
  ('importlib',
   'c:\\users\\zack\\appdata\\local\\programs\\python\\python37-32\\lib\\importlib\\__init__.py',
   'PYMODULE'),
  ('importlib.abc',
   'c:\\users\\zack\\appdata\\local\\programs\\python\\python37-32\\lib\\importlib\\abc.py',
   'PYMODULE'),
  ('importlib.util',
   'c:\\users\\zack\\appdata\\local\\programs\\python\\python37-32\\lib\\importlib\\util.py',
   'PYMODULE'),
  ('importlib.machinery',
   'c:\\users\\zack\\appdata\\local\\programs\\python\\python37-32\\lib\\importlib\\machinery.py',
   'PYMODULE'),
  ('importlib._bootstrap_external',
   'c:\\users\\zack\\appdata\\local\\programs\\python\\python37-32\\lib\\importlib\\_bootstrap_external.py',
   'PYMODULE'),
  ('importlib._bootstrap',
   'c:\\users\\zack\\appdata\\local\\programs\\python\\python37-32\\lib\\importlib\\_bootstrap.py',
   'PYMODULE'),
  ('runpy',
   'c:\\users\\zack\\appdata\\local\\programs\\python\\python37-32\\lib\\runpy.py',
   'PYMODULE'),
  ('shlex',
   'c:\\users\\zack\\appdata\\local\\programs\\python\\python37-32\\lib\\shlex.py',
   'PYMODULE'),
  ('glob',
   'c:\\users\\zack\\appdata\\local\\programs\\python\\python37-32\\lib\\glob.py',
   'PYMODULE'),
  ('code',
   'c:\\users\\zack\\appdata\\local\\programs\\python\\python37-32\\lib\\code.py',
   'PYMODULE'),
  ('codeop',
   'c:\\users\\zack\\appdata\\local\\programs\\python\\python37-32\\lib\\codeop.py',
   'PYMODULE'),
  ('dis',
   'c:\\users\\zack\\appdata\\local\\programs\\python\\python37-32\\lib\\dis.py',
   'PYMODULE'),
  ('opcode',
   'c:\\users\\zack\\appdata\\local\\programs\\python\\python37-32\\lib\\opcode.py',
   'PYMODULE'),
  ('bdb',
   'c:\\users\\zack\\appdata\\local\\programs\\python\\python37-32\\lib\\bdb.py',
   'PYMODULE'),
  ('cmd',
   'c:\\users\\zack\\appdata\\local\\programs\\python\\python37-32\\lib\\cmd.py',
   'PYMODULE'),
  ('inspect',
   'c:\\users\\zack\\appdata\\local\\programs\\python\\python37-32\\lib\\inspect.py',
   'PYMODULE'),
  ('ast',
   'c:\\users\\zack\\appdata\\local\\programs\\python\\python37-32\\lib\\ast.py',
   'PYMODULE'),
  ('difflib',
   'c:\\users\\zack\\appdata\\local\\programs\\python\\python37-32\\lib\\difflib.py',
   'PYMODULE'),
  ('tracemalloc',
   'c:\\users\\zack\\appdata\\local\\programs\\python\\python37-32\\lib\\tracemalloc.py',
   'PYMODULE'),
  ('PIL.Image',
   'c:\\users\\zack\\appdata\\local\\programs\\python\\python37-32\\lib\\site-packages\\PIL\\Image.py',
   'PYMODULE'),
  ('PIL.MpoImagePlugin',
   'c:\\users\\zack\\appdata\\local\\programs\\python\\python37-32\\lib\\site-packages\\PIL\\MpoImagePlugin.py',
   'PYMODULE'),
  ('PIL.ImageFile',
   'c:\\users\\zack\\appdata\\local\\programs\\python\\python37-32\\lib\\site-packages\\PIL\\ImageFile.py',
   'PYMODULE'),
  ('PIL.SgiImagePlugin',
   'c:\\users\\zack\\appdata\\local\\programs\\python\\python37-32\\lib\\site-packages\\PIL\\SgiImagePlugin.py',
   'PYMODULE'),
  ('PIL.PcdImagePlugin',
   'c:\\users\\zack\\appdata\\local\\programs\\python\\python37-32\\lib\\site-packages\\PIL\\PcdImagePlugin.py',
   'PYMODULE'),
  ('PIL.XbmImagePlugin',
   'c:\\users\\zack\\appdata\\local\\programs\\python\\python37-32\\lib\\site-packages\\PIL\\XbmImagePlugin.py',
   'PYMODULE'),
  ('PIL.WmfImagePlugin',
   'c:\\users\\zack\\appdata\\local\\programs\\python\\python37-32\\lib\\site-packages\\PIL\\WmfImagePlugin.py',
   'PYMODULE'),
  ('PIL.TgaImagePlugin',
   'c:\\users\\zack\\appdata\\local\\programs\\python\\python37-32\\lib\\site-packages\\PIL\\TgaImagePlugin.py',
   'PYMODULE'),
  ('PIL.BlpImagePlugin',
   'c:\\users\\zack\\appdata\\local\\programs\\python\\python37-32\\lib\\site-packages\\PIL\\BlpImagePlugin.py',
   'PYMODULE'),
  ('PIL.IptcImagePlugin',
   'c:\\users\\zack\\appdata\\local\\programs\\python\\python37-32\\lib\\site-packages\\PIL\\IptcImagePlugin.py',
   'PYMODULE'),
  ('PIL.FitsStubImagePlugin',
   'c:\\users\\zack\\appdata\\local\\programs\\python\\python37-32\\lib\\site-packages\\PIL\\FitsStubImagePlugin.py',
   'PYMODULE'),
  ('PIL.BufrStubImagePlugin',
   'c:\\users\\zack\\appdata\\local\\programs\\python\\python37-32\\lib\\site-packages\\PIL\\BufrStubImagePlugin.py',
   'PYMODULE'),
  ('PIL.PcxImagePlugin',
   'c:\\users\\zack\\appdata\\local\\programs\\python\\python37-32\\lib\\site-packages\\PIL\\PcxImagePlugin.py',
   'PYMODULE'),
  ('PIL.MpegImagePlugin',
   'c:\\users\\zack\\appdata\\local\\programs\\python\\python37-32\\lib\\site-packages\\PIL\\MpegImagePlugin.py',
   'PYMODULE'),
  ('PIL.IcnsImagePlugin',
   'c:\\users\\zack\\appdata\\local\\programs\\python\\python37-32\\lib\\site-packages\\PIL\\IcnsImagePlugin.py',
   'PYMODULE'),
  ('PIL.PdfImagePlugin',
   'c:\\users\\zack\\appdata\\local\\programs\\python\\python37-32\\lib\\site-packages\\PIL\\PdfImagePlugin.py',
   'PYMODULE'),
  ('PIL.PdfParser',
   'c:\\users\\zack\\appdata\\local\\programs\\python\\python37-32\\lib\\site-packages\\PIL\\PdfParser.py',
   'PYMODULE'),
  ('PIL.ImageSequence',
   'c:\\users\\zack\\appdata\\local\\programs\\python\\python37-32\\lib\\site-packages\\PIL\\ImageSequence.py',
   'PYMODULE'),
  ('PIL.WebPImagePlugin',
   'c:\\users\\zack\\appdata\\local\\programs\\python\\python37-32\\lib\\site-packages\\PIL\\WebPImagePlugin.py',
   'PYMODULE'),
  ('PIL.CurImagePlugin',
   'c:\\users\\zack\\appdata\\local\\programs\\python\\python37-32\\lib\\site-packages\\PIL\\CurImagePlugin.py',
   'PYMODULE'),
  ('PIL.XVThumbImagePlugin',
   'c:\\users\\zack\\appdata\\local\\programs\\python\\python37-32\\lib\\site-packages\\PIL\\XVThumbImagePlugin.py',
   'PYMODULE'),
  ('PIL.IcoImagePlugin',
   'c:\\users\\zack\\appdata\\local\\programs\\python\\python37-32\\lib\\site-packages\\PIL\\IcoImagePlugin.py',
   'PYMODULE'),
  ('PIL.Jpeg2KImagePlugin',
   'c:\\users\\zack\\appdata\\local\\programs\\python\\python37-32\\lib\\site-packages\\PIL\\Jpeg2KImagePlugin.py',
   'PYMODULE'),
  ('PIL.GbrImagePlugin',
   'c:\\users\\zack\\appdata\\local\\programs\\python\\python37-32\\lib\\site-packages\\PIL\\GbrImagePlugin.py',
   'PYMODULE'),
  ('PIL.SunImagePlugin',
   'c:\\users\\zack\\appdata\\local\\programs\\python\\python37-32\\lib\\site-packages\\PIL\\SunImagePlugin.py',
   'PYMODULE'),
  ('PIL.SpiderImagePlugin',
   'c:\\users\\zack\\appdata\\local\\programs\\python\\python37-32\\lib\\site-packages\\PIL\\SpiderImagePlugin.py',
   'PYMODULE'),
  ('PIL.ImageTk',
   'c:\\users\\zack\\appdata\\local\\programs\\python\\python37-32\\lib\\site-packages\\PIL\\ImageTk.py',
   'PYMODULE'),
  ('PIL.PsdImagePlugin',
   'c:\\users\\zack\\appdata\\local\\programs\\python\\python37-32\\lib\\site-packages\\PIL\\PsdImagePlugin.py',
   'PYMODULE'),
  ('PIL.MspImagePlugin',
   'c:\\users\\zack\\appdata\\local\\programs\\python\\python37-32\\lib\\site-packages\\PIL\\MspImagePlugin.py',
   'PYMODULE'),
  ('PIL.GribStubImagePlugin',
   'c:\\users\\zack\\appdata\\local\\programs\\python\\python37-32\\lib\\site-packages\\PIL\\GribStubImagePlugin.py',
   'PYMODULE'),
  ('PIL.PalmImagePlugin',
   'c:\\users\\zack\\appdata\\local\\programs\\python\\python37-32\\lib\\site-packages\\PIL\\PalmImagePlugin.py',
   'PYMODULE'),
  ('PIL.MicImagePlugin',
   'c:\\users\\zack\\appdata\\local\\programs\\python\\python37-32\\lib\\site-packages\\PIL\\MicImagePlugin.py',
   'PYMODULE'),
  ('PIL.Hdf5StubImagePlugin',
   'c:\\users\\zack\\appdata\\local\\programs\\python\\python37-32\\lib\\site-packages\\PIL\\Hdf5StubImagePlugin.py',
   'PYMODULE'),
  ('PIL.ImImagePlugin',
   'c:\\users\\zack\\appdata\\local\\programs\\python\\python37-32\\lib\\site-packages\\PIL\\ImImagePlugin.py',
   'PYMODULE'),
  ('PIL.EpsImagePlugin',
   'c:\\users\\zack\\appdata\\local\\programs\\python\\python37-32\\lib\\site-packages\\PIL\\EpsImagePlugin.py',
   'PYMODULE'),
  ('PIL.PixarImagePlugin',
   'c:\\users\\zack\\appdata\\local\\programs\\python\\python37-32\\lib\\site-packages\\PIL\\PixarImagePlugin.py',
   'PYMODULE'),
  ('PIL.FtexImagePlugin',
   'c:\\users\\zack\\appdata\\local\\programs\\python\\python37-32\\lib\\site-packages\\PIL\\FtexImagePlugin.py',
   'PYMODULE'),
  ('PIL.XpmImagePlugin',
   'c:\\users\\zack\\appdata\\local\\programs\\python\\python37-32\\lib\\site-packages\\PIL\\XpmImagePlugin.py',
   'PYMODULE'),
  ('PIL.DcxImagePlugin',
   'c:\\users\\zack\\appdata\\local\\programs\\python\\python37-32\\lib\\site-packages\\PIL\\DcxImagePlugin.py',
   'PYMODULE'),
  ('PIL.FliImagePlugin',
   'c:\\users\\zack\\appdata\\local\\programs\\python\\python37-32\\lib\\site-packages\\PIL\\FliImagePlugin.py',
   'PYMODULE'),
  ('PIL.DdsImagePlugin',
   'c:\\users\\zack\\appdata\\local\\programs\\python\\python37-32\\lib\\site-packages\\PIL\\DdsImagePlugin.py',
   'PYMODULE'),
  ('PIL.McIdasImagePlugin',
   'c:\\users\\zack\\appdata\\local\\programs\\python\\python37-32\\lib\\site-packages\\PIL\\McIdasImagePlugin.py',
   'PYMODULE'),
  ('PIL.FpxImagePlugin',
   'c:\\users\\zack\\appdata\\local\\programs\\python\\python37-32\\lib\\site-packages\\PIL\\FpxImagePlugin.py',
   'PYMODULE'),
  ('PIL.ImtImagePlugin',
   'c:\\users\\zack\\appdata\\local\\programs\\python\\python37-32\\lib\\site-packages\\PIL\\ImtImagePlugin.py',
   'PYMODULE'),
  ('PIL.TiffImagePlugin',
   'c:\\users\\zack\\appdata\\local\\programs\\python\\python37-32\\lib\\site-packages\\PIL\\TiffImagePlugin.py',
   'PYMODULE'),
  ('fractions',
   'c:\\users\\zack\\appdata\\local\\programs\\python\\python37-32\\lib\\fractions.py',
   'PYMODULE'),
  ('decimal',
   'c:\\users\\zack\\appdata\\local\\programs\\python\\python37-32\\lib\\decimal.py',
   'PYMODULE'),
  ('_pydecimal',
   'c:\\users\\zack\\appdata\\local\\programs\\python\\python37-32\\lib\\_pydecimal.py',
   'PYMODULE'),
  ('contextvars',
   'c:\\users\\zack\\appdata\\local\\programs\\python\\python37-32\\lib\\contextvars.py',
   'PYMODULE'),
  ('PIL.ImageShow',
   'c:\\users\\zack\\appdata\\local\\programs\\python\\python37-32\\lib\\site-packages\\PIL\\ImageShow.py',
   'PYMODULE'),
  ('PIL.ImageQt',
   'c:\\users\\zack\\appdata\\local\\programs\\python\\python37-32\\lib\\site-packages\\PIL\\ImageQt.py',
   'PYMODULE'),
  ('PIL.ImageColor',
   'c:\\users\\zack\\appdata\\local\\programs\\python\\python37-32\\lib\\site-packages\\PIL\\ImageColor.py',
   'PYMODULE'),
  ('colorsys',
   'c:\\users\\zack\\appdata\\local\\programs\\python\\python37-32\\lib\\colorsys.py',
   'PYMODULE'),
  ('PIL.ImageFilter',
   'c:\\users\\zack\\appdata\\local\\programs\\python\\python37-32\\lib\\site-packages\\PIL\\ImageFilter.py',
   'PYMODULE'),
  ('PIL.PyAccess',
   'c:\\users\\zack\\appdata\\local\\programs\\python\\python37-32\\lib\\site-packages\\PIL\\PyAccess.py',
   'PYMODULE'),
  ('PIL.ImagePalette',
   'c:\\users\\zack\\appdata\\local\\programs\\python\\python37-32\\lib\\site-packages\\PIL\\ImagePalette.py',
   'PYMODULE'),
  ('PIL.PaletteFile',
   'c:\\users\\zack\\appdata\\local\\programs\\python\\python37-32\\lib\\site-packages\\PIL\\PaletteFile.py',
   'PYMODULE'),
  ('PIL.GimpPaletteFile',
   'c:\\users\\zack\\appdata\\local\\programs\\python\\python37-32\\lib\\site-packages\\PIL\\GimpPaletteFile.py',
   'PYMODULE'),
  ('PIL.GimpGradientFile',
   'c:\\users\\zack\\appdata\\local\\programs\\python\\python37-32\\lib\\site-packages\\PIL\\GimpGradientFile.py',
   'PYMODULE'),
  ('PIL.PngImagePlugin',
   'c:\\users\\zack\\appdata\\local\\programs\\python\\python37-32\\lib\\site-packages\\PIL\\PngImagePlugin.py',
   'PYMODULE'),
  ('PIL.ImageChops',
   'c:\\users\\zack\\appdata\\local\\programs\\python\\python37-32\\lib\\site-packages\\PIL\\ImageChops.py',
   'PYMODULE'),
  ('PIL.PpmImagePlugin',
   'c:\\users\\zack\\appdata\\local\\programs\\python\\python37-32\\lib\\site-packages\\PIL\\PpmImagePlugin.py',
   'PYMODULE'),
  ('PIL.JpegImagePlugin',
   'c:\\users\\zack\\appdata\\local\\programs\\python\\python37-32\\lib\\site-packages\\PIL\\JpegImagePlugin.py',
   'PYMODULE'),
  ('PIL.JpegPresets',
   'c:\\users\\zack\\appdata\\local\\programs\\python\\python37-32\\lib\\site-packages\\PIL\\JpegPresets.py',
   'PYMODULE'),
  ('PIL.GifImagePlugin',
   'c:\\users\\zack\\appdata\\local\\programs\\python\\python37-32\\lib\\site-packages\\PIL\\GifImagePlugin.py',
   'PYMODULE'),
  ('PIL.BmpImagePlugin',
   'c:\\users\\zack\\appdata\\local\\programs\\python\\python37-32\\lib\\site-packages\\PIL\\BmpImagePlugin.py',
   'PYMODULE'),
  ('PIL._util',
   'c:\\users\\zack\\appdata\\local\\programs\\python\\python37-32\\lib\\site-packages\\PIL\\_util.py',
   'PYMODULE'),
  ('PIL._binary',
   'c:\\users\\zack\\appdata\\local\\programs\\python\\python37-32\\lib\\site-packages\\PIL\\_binary.py',
   'PYMODULE'),
  ('PIL.TiffTags',
   'c:\\users\\zack\\appdata\\local\\programs\\python\\python37-32\\lib\\site-packages\\PIL\\TiffTags.py',
   'PYMODULE'),
  ('PIL.ImageMode',
   'c:\\users\\zack\\appdata\\local\\programs\\python\\python37-32\\lib\\site-packages\\PIL\\ImageMode.py',
   'PYMODULE'),
  ('pathlib',
   'c:\\users\\zack\\appdata\\local\\programs\\python\\python37-32\\lib\\pathlib.py',
   'PYMODULE'),
  ('numbers',
   'c:\\users\\zack\\appdata\\local\\programs\\python\\python37-32\\lib\\numbers.py',
   'PYMODULE'),
  ('PIL',
   'c:\\users\\zack\\appdata\\local\\programs\\python\\python37-32\\lib\\site-packages\\PIL\\__init__.py',
   'PYMODULE'),
  ('PIL._version',
   'c:\\users\\zack\\appdata\\local\\programs\\python\\python37-32\\lib\\site-packages\\PIL\\_version.py',
   'PYMODULE'),
  ('prettytable',
   'c:\\users\\zack\\appdata\\local\\programs\\python\\python37-32\\lib\\site-packages\\prettytable.py',
   'PYMODULE'),
  ('cgi',
   'c:\\users\\zack\\appdata\\local\\programs\\python\\python37-32\\lib\\cgi.py',
   'PYMODULE'),
  ('html.parser',
   'c:\\users\\zack\\appdata\\local\\programs\\python\\python37-32\\lib\\html\\parser.py',
   'PYMODULE'),
  ('_markupbase',
   'c:\\users\\zack\\appdata\\local\\programs\\python\\python37-32\\lib\\_markupbase.py',
   'PYMODULE'),
  ('csv',
   'c:\\users\\zack\\appdata\\local\\programs\\python\\python37-32\\lib\\csv.py',
   'PYMODULE'),
  ('bs4',
   'c:\\users\\zack\\appdata\\local\\programs\\python\\python37-32\\lib\\site-packages\\bs4\\__init__.py',
   'PYMODULE'),
  ('bs4.element',
   'c:\\users\\zack\\appdata\\local\\programs\\python\\python37-32\\lib\\site-packages\\bs4\\element.py',
   'PYMODULE'),
  ('bs4.formatter',
   'c:\\users\\zack\\appdata\\local\\programs\\python\\python37-32\\lib\\site-packages\\bs4\\formatter.py',
   'PYMODULE'),
  ('soupsieve',
   'c:\\users\\zack\\appdata\\local\\programs\\python\\python37-32\\lib\\site-packages\\soupsieve\\__init__.py',
   'PYMODULE'),
  ('soupsieve.css_parser',
   'c:\\users\\zack\\appdata\\local\\programs\\python\\python37-32\\lib\\site-packages\\soupsieve\\css_parser.py',
   'PYMODULE'),
  ('soupsieve.css_match',
   'c:\\users\\zack\\appdata\\local\\programs\\python\\python37-32\\lib\\site-packages\\soupsieve\\css_match.py',
   'PYMODULE'),
  ('soupsieve.css_types',
   'c:\\users\\zack\\appdata\\local\\programs\\python\\python37-32\\lib\\site-packages\\soupsieve\\css_types.py',
   'PYMODULE'),
  ('soupsieve.util',
   'c:\\users\\zack\\appdata\\local\\programs\\python\\python37-32\\lib\\site-packages\\soupsieve\\util.py',
   'PYMODULE'),
  ('soupsieve.__meta__',
   'c:\\users\\zack\\appdata\\local\\programs\\python\\python37-32\\lib\\site-packages\\soupsieve\\__meta__.py',
   'PYMODULE'),
  ('bs4.dammit',
   'c:\\users\\zack\\appdata\\local\\programs\\python\\python37-32\\lib\\site-packages\\bs4\\dammit.py',
   'PYMODULE'),
  ('chardet',
   'c:\\users\\zack\\appdata\\local\\programs\\python\\python37-32\\lib\\site-packages\\chardet\\__init__.py',
   'PYMODULE'),
  ('chardet.version',
   'c:\\users\\zack\\appdata\\local\\programs\\python\\python37-32\\lib\\site-packages\\chardet\\version.py',
   'PYMODULE'),
  ('chardet.universaldetector',
   'c:\\users\\zack\\appdata\\local\\programs\\python\\python37-32\\lib\\site-packages\\chardet\\universaldetector.py',
   'PYMODULE'),
  ('chardet.sbcsgroupprober',
   'c:\\users\\zack\\appdata\\local\\programs\\python\\python37-32\\lib\\site-packages\\chardet\\sbcsgroupprober.py',
   'PYMODULE'),
  ('chardet.langturkishmodel',
   'c:\\users\\zack\\appdata\\local\\programs\\python\\python37-32\\lib\\site-packages\\chardet\\langturkishmodel.py',
   'PYMODULE'),
  ('chardet.hebrewprober',
   'c:\\users\\zack\\appdata\\local\\programs\\python\\python37-32\\lib\\site-packages\\chardet\\hebrewprober.py',
   'PYMODULE'),
  ('chardet.charsetprober',
   'c:\\users\\zack\\appdata\\local\\programs\\python\\python37-32\\lib\\site-packages\\chardet\\charsetprober.py',
   'PYMODULE'),
  ('chardet.langhebrewmodel',
   'c:\\users\\zack\\appdata\\local\\programs\\python\\python37-32\\lib\\site-packages\\chardet\\langhebrewmodel.py',
   'PYMODULE'),
  ('chardet.langthaimodel',
   'c:\\users\\zack\\appdata\\local\\programs\\python\\python37-32\\lib\\site-packages\\chardet\\langthaimodel.py',
   'PYMODULE'),
  ('chardet.langbulgarianmodel',
   'c:\\users\\zack\\appdata\\local\\programs\\python\\python37-32\\lib\\site-packages\\chardet\\langbulgarianmodel.py',
   'PYMODULE'),
  ('chardet.langgreekmodel',
   'c:\\users\\zack\\appdata\\local\\programs\\python\\python37-32\\lib\\site-packages\\chardet\\langgreekmodel.py',
   'PYMODULE'),
  ('chardet.langcyrillicmodel',
   'c:\\users\\zack\\appdata\\local\\programs\\python\\python37-32\\lib\\site-packages\\chardet\\langcyrillicmodel.py',
   'PYMODULE'),
  ('chardet.sbcharsetprober',
   'c:\\users\\zack\\appdata\\local\\programs\\python\\python37-32\\lib\\site-packages\\chardet\\sbcharsetprober.py',
   'PYMODULE'),
  ('chardet.mbcsgroupprober',
   'c:\\users\\zack\\appdata\\local\\programs\\python\\python37-32\\lib\\site-packages\\chardet\\mbcsgroupprober.py',
   'PYMODULE'),
  ('chardet.euctwprober',
   'c:\\users\\zack\\appdata\\local\\programs\\python\\python37-32\\lib\\site-packages\\chardet\\euctwprober.py',
   'PYMODULE'),
  ('chardet.mbcssm',
   'c:\\users\\zack\\appdata\\local\\programs\\python\\python37-32\\lib\\site-packages\\chardet\\mbcssm.py',
   'PYMODULE'),
  ('chardet.chardistribution',
   'c:\\users\\zack\\appdata\\local\\programs\\python\\python37-32\\lib\\site-packages\\chardet\\chardistribution.py',
   'PYMODULE'),
  ('chardet.jisfreq',
   'c:\\users\\zack\\appdata\\local\\programs\\python\\python37-32\\lib\\site-packages\\chardet\\jisfreq.py',
   'PYMODULE'),
  ('chardet.big5freq',
   'c:\\users\\zack\\appdata\\local\\programs\\python\\python37-32\\lib\\site-packages\\chardet\\big5freq.py',
   'PYMODULE'),
  ('chardet.gb2312freq',
   'c:\\users\\zack\\appdata\\local\\programs\\python\\python37-32\\lib\\site-packages\\chardet\\gb2312freq.py',
   'PYMODULE'),
  ('chardet.euckrfreq',
   'c:\\users\\zack\\appdata\\local\\programs\\python\\python37-32\\lib\\site-packages\\chardet\\euckrfreq.py',
   'PYMODULE'),
  ('chardet.euctwfreq',
   'c:\\users\\zack\\appdata\\local\\programs\\python\\python37-32\\lib\\site-packages\\chardet\\euctwfreq.py',
   'PYMODULE'),
  ('chardet.codingstatemachine',
   'c:\\users\\zack\\appdata\\local\\programs\\python\\python37-32\\lib\\site-packages\\chardet\\codingstatemachine.py',
   'PYMODULE'),
  ('chardet.mbcharsetprober',
   'c:\\users\\zack\\appdata\\local\\programs\\python\\python37-32\\lib\\site-packages\\chardet\\mbcharsetprober.py',
   'PYMODULE'),
  ('chardet.big5prober',
   'c:\\users\\zack\\appdata\\local\\programs\\python\\python37-32\\lib\\site-packages\\chardet\\big5prober.py',
   'PYMODULE'),
  ('chardet.cp949prober',
   'c:\\users\\zack\\appdata\\local\\programs\\python\\python37-32\\lib\\site-packages\\chardet\\cp949prober.py',
   'PYMODULE'),
  ('chardet.euckrprober',
   'c:\\users\\zack\\appdata\\local\\programs\\python\\python37-32\\lib\\site-packages\\chardet\\euckrprober.py',
   'PYMODULE'),
  ('chardet.gb2312prober',
   'c:\\users\\zack\\appdata\\local\\programs\\python\\python37-32\\lib\\site-packages\\chardet\\gb2312prober.py',
   'PYMODULE'),
  ('chardet.eucjpprober',
   'c:\\users\\zack\\appdata\\local\\programs\\python\\python37-32\\lib\\site-packages\\chardet\\eucjpprober.py',
   'PYMODULE'),
  ('chardet.jpcntx',
   'c:\\users\\zack\\appdata\\local\\programs\\python\\python37-32\\lib\\site-packages\\chardet\\jpcntx.py',
   'PYMODULE'),
  ('chardet.sjisprober',
   'c:\\users\\zack\\appdata\\local\\programs\\python\\python37-32\\lib\\site-packages\\chardet\\sjisprober.py',
   'PYMODULE'),
  ('chardet.utf8prober',
   'c:\\users\\zack\\appdata\\local\\programs\\python\\python37-32\\lib\\site-packages\\chardet\\utf8prober.py',
   'PYMODULE'),
  ('chardet.latin1prober',
   'c:\\users\\zack\\appdata\\local\\programs\\python\\python37-32\\lib\\site-packages\\chardet\\latin1prober.py',
   'PYMODULE'),
  ('chardet.escprober',
   'c:\\users\\zack\\appdata\\local\\programs\\python\\python37-32\\lib\\site-packages\\chardet\\escprober.py',
   'PYMODULE'),
  ('chardet.escsm',
   'c:\\users\\zack\\appdata\\local\\programs\\python\\python37-32\\lib\\site-packages\\chardet\\escsm.py',
   'PYMODULE'),
  ('chardet.enums',
   'c:\\users\\zack\\appdata\\local\\programs\\python\\python37-32\\lib\\site-packages\\chardet\\enums.py',
   'PYMODULE'),
  ('chardet.charsetgroupprober',
   'c:\\users\\zack\\appdata\\local\\programs\\python\\python37-32\\lib\\site-packages\\chardet\\charsetgroupprober.py',
   'PYMODULE'),
  ('chardet.compat',
   'c:\\users\\zack\\appdata\\local\\programs\\python\\python37-32\\lib\\site-packages\\chardet\\compat.py',
   'PYMODULE'),
  ('bs4.builder',
   'c:\\users\\zack\\appdata\\local\\programs\\python\\python37-32\\lib\\site-packages\\bs4\\builder\\__init__.py',
   'PYMODULE'),
  ('bs4.builder._lxml',
   'c:\\users\\zack\\appdata\\local\\programs\\python\\python37-32\\lib\\site-packages\\bs4\\builder\\_lxml.py',
   'PYMODULE'),
  ('bs4.builder._html5lib',
   'c:\\users\\zack\\appdata\\local\\programs\\python\\python37-32\\lib\\site-packages\\bs4\\builder\\_html5lib.py',
   'PYMODULE'),
  ('bs4.builder._htmlparser',
   'c:\\users\\zack\\appdata\\local\\programs\\python\\python37-32\\lib\\site-packages\\bs4\\builder\\_htmlparser.py',
   'PYMODULE'),
  ('os',
   'c:\\users\\zack\\appdata\\local\\programs\\python\\python37-32\\lib\\os.py',
   'PYMODULE'),
  ('requests',
   'c:\\users\\zack\\appdata\\local\\programs\\python\\python37-32\\lib\\site-packages\\requests\\__init__.py',
   'PYMODULE'),
  ('requests.status_codes',
   'c:\\users\\zack\\appdata\\local\\programs\\python\\python37-32\\lib\\site-packages\\requests\\status_codes.py',
   'PYMODULE'),
  ('requests.structures',
   'c:\\users\\zack\\appdata\\local\\programs\\python\\python37-32\\lib\\site-packages\\requests\\structures.py',
   'PYMODULE'),
  ('requests.compat',
   'c:\\users\\zack\\appdata\\local\\programs\\python\\python37-32\\lib\\site-packages\\requests\\compat.py',
   'PYMODULE'),
  ('http.cookies',
   'c:\\users\\zack\\appdata\\local\\programs\\python\\python37-32\\lib\\http\\cookies.py',
   'PYMODULE'),
  ('json',
   'c:\\users\\zack\\appdata\\local\\programs\\python\\python37-32\\lib\\json\\__init__.py',
   'PYMODULE'),
  ('json.encoder',
   'c:\\users\\zack\\appdata\\local\\programs\\python\\python37-32\\lib\\json\\encoder.py',
   'PYMODULE'),
  ('json.decoder',
   'c:\\users\\zack\\appdata\\local\\programs\\python\\python37-32\\lib\\json\\decoder.py',
   'PYMODULE'),
  ('json.scanner',
   'c:\\users\\zack\\appdata\\local\\programs\\python\\python37-32\\lib\\json\\scanner.py',
   'PYMODULE'),
  ('requests.api',
   'c:\\users\\zack\\appdata\\local\\programs\\python\\python37-32\\lib\\site-packages\\requests\\api.py',
   'PYMODULE'),
  ('requests.sessions',
   'c:\\users\\zack\\appdata\\local\\programs\\python\\python37-32\\lib\\site-packages\\requests\\sessions.py',
   'PYMODULE'),
  ('requests.adapters',
   'c:\\users\\zack\\appdata\\local\\programs\\python\\python37-32\\lib\\site-packages\\requests\\adapters.py',
   'PYMODULE'),
  ('urllib3.contrib.socks',
   'c:\\users\\zack\\appdata\\local\\programs\\python\\python37-32\\lib\\site-packages\\urllib3\\contrib\\socks.py',
   'PYMODULE'),
  ('urllib3.util.url',
   'c:\\users\\zack\\appdata\\local\\programs\\python\\python37-32\\lib\\site-packages\\urllib3\\util\\url.py',
   'PYMODULE'),
  ('idna',
   'c:\\users\\zack\\appdata\\local\\programs\\python\\python37-32\\lib\\site-packages\\idna\\__init__.py',
   'PYMODULE'),
  ('idna.core',
   'c:\\users\\zack\\appdata\\local\\programs\\python\\python37-32\\lib\\site-packages\\idna\\core.py',
   'PYMODULE'),
  ('idna.uts46data',
   'c:\\users\\zack\\appdata\\local\\programs\\python\\python37-32\\lib\\site-packages\\idna\\uts46data.py',
   'PYMODULE'),
  ('idna.intranges',
   'c:\\users\\zack\\appdata\\local\\programs\\python\\python37-32\\lib\\site-packages\\idna\\intranges.py',
   'PYMODULE'),
  ('idna.idnadata',
   'c:\\users\\zack\\appdata\\local\\programs\\python\\python37-32\\lib\\site-packages\\idna\\idnadata.py',
   'PYMODULE'),
  ('idna.package_data',
   'c:\\users\\zack\\appdata\\local\\programs\\python\\python37-32\\lib\\site-packages\\idna\\package_data.py',
   'PYMODULE'),
  ('urllib3.packages.six',
   'c:\\users\\zack\\appdata\\local\\programs\\python\\python37-32\\lib\\site-packages\\urllib3\\packages\\six.py',
   'PYMODULE'),
  ('urllib3.packages',
   'c:\\users\\zack\\appdata\\local\\programs\\python\\python37-32\\lib\\site-packages\\urllib3\\packages\\__init__.py',
   'PYMODULE'),
  ('urllib3.packages.ssl_match_hostname',
   'c:\\users\\zack\\appdata\\local\\programs\\python\\python37-32\\lib\\site-packages\\urllib3\\packages\\ssl_match_hostname\\__init__.py',
   'PYMODULE'),
  ('urllib3.packages.ssl_match_hostname._implementation',
   'c:\\users\\zack\\appdata\\local\\programs\\python\\python37-32\\lib\\site-packages\\urllib3\\packages\\ssl_match_hostname\\_implementation.py',
   'PYMODULE'),
  ('ipaddress',
   'c:\\users\\zack\\appdata\\local\\programs\\python\\python37-32\\lib\\ipaddress.py',
   'PYMODULE'),
  ('urllib3.connectionpool',
   'c:\\users\\zack\\appdata\\local\\programs\\python\\python37-32\\lib\\site-packages\\urllib3\\connectionpool.py',
   'PYMODULE'),
  ('urllib3.util.queue',
   'c:\\users\\zack\\appdata\\local\\programs\\python\\python37-32\\lib\\site-packages\\urllib3\\util\\queue.py',
   'PYMODULE'),
  ('urllib3.util.timeout',
   'c:\\users\\zack\\appdata\\local\\programs\\python\\python37-32\\lib\\site-packages\\urllib3\\util\\timeout.py',
   'PYMODULE'),
  ('urllib3.util.response',
   'c:\\users\\zack\\appdata\\local\\programs\\python\\python37-32\\lib\\site-packages\\urllib3\\util\\response.py',
   'PYMODULE'),
  ('urllib3.util.request',
   'c:\\users\\zack\\appdata\\local\\programs\\python\\python37-32\\lib\\site-packages\\urllib3\\util\\request.py',
   'PYMODULE'),
  ('urllib3.util.connection',
   'c:\\users\\zack\\appdata\\local\\programs\\python\\python37-32\\lib\\site-packages\\urllib3\\util\\connection.py',
   'PYMODULE'),
  ('urllib3.contrib._appengine_environ',
   'c:\\users\\zack\\appdata\\local\\programs\\python\\python37-32\\lib\\site-packages\\urllib3\\contrib\\_appengine_environ.py',
   'PYMODULE'),
  ('urllib3.util.wait',
   'c:\\users\\zack\\appdata\\local\\programs\\python\\python37-32\\lib\\site-packages\\urllib3\\util\\wait.py',
   'PYMODULE'),
  ('urllib3.request',
   'c:\\users\\zack\\appdata\\local\\programs\\python\\python37-32\\lib\\site-packages\\urllib3\\request.py',
   'PYMODULE'),
  ('urllib3.filepost',
   'c:\\users\\zack\\appdata\\local\\programs\\python\\python37-32\\lib\\site-packages\\urllib3\\filepost.py',
   'PYMODULE'),
  ('urllib3.fields',
   'c:\\users\\zack\\appdata\\local\\programs\\python\\python37-32\\lib\\site-packages\\urllib3\\fields.py',
   'PYMODULE'),
  ('queue',
   'c:\\users\\zack\\appdata\\local\\programs\\python\\python37-32\\lib\\queue.py',
   'PYMODULE'),
  ('urllib3.connection',
   'c:\\users\\zack\\appdata\\local\\programs\\python\\python37-32\\lib\\site-packages\\urllib3\\connection.py',
   'PYMODULE'),
  ('urllib3._collections',
   'c:\\users\\zack\\appdata\\local\\programs\\python\\python37-32\\lib\\site-packages\\urllib3\\_collections.py',
   'PYMODULE'),
  ('urllib3.util.ssl_',
   'c:\\users\\zack\\appdata\\local\\programs\\python\\python37-32\\lib\\site-packages\\urllib3\\util\\ssl_.py',
   'PYMODULE'),
  ('hmac',
   'c:\\users\\zack\\appdata\\local\\programs\\python\\python37-32\\lib\\hmac.py',
   'PYMODULE'),
  ('urllib3.util.retry',
   'c:\\users\\zack\\appdata\\local\\programs\\python\\python37-32\\lib\\site-packages\\urllib3\\util\\retry.py',
   'PYMODULE'),
  ('urllib3.util',
   'c:\\users\\zack\\appdata\\local\\programs\\python\\python37-32\\lib\\site-packages\\urllib3\\util\\__init__.py',
   'PYMODULE'),
  ('urllib3.response',
   'c:\\users\\zack\\appdata\\local\\programs\\python\\python37-32\\lib\\site-packages\\urllib3\\response.py',
   'PYMODULE'),
  ('urllib3.poolmanager',
   'c:\\users\\zack\\appdata\\local\\programs\\python\\python37-32\\lib\\site-packages\\urllib3\\poolmanager.py',
   'PYMODULE'),
  ('requests._internal_utils',
   'c:\\users\\zack\\appdata\\local\\programs\\python\\python37-32\\lib\\site-packages\\requests\\_internal_utils.py',
   'PYMODULE'),
  ('requests.hooks',
   'c:\\users\\zack\\appdata\\local\\programs\\python\\python37-32\\lib\\site-packages\\requests\\hooks.py',
   'PYMODULE'),
  ('requests.cookies',
   'c:\\users\\zack\\appdata\\local\\programs\\python\\python37-32\\lib\\site-packages\\requests\\cookies.py',
   'PYMODULE'),
  ('dummy_threading',
   'c:\\users\\zack\\appdata\\local\\programs\\python\\python37-32\\lib\\dummy_threading.py',
   'PYMODULE'),
  ('_dummy_thread',
   'c:\\users\\zack\\appdata\\local\\programs\\python\\python37-32\\lib\\_dummy_thread.py',
   'PYMODULE'),
  ('requests.auth',
   'c:\\users\\zack\\appdata\\local\\programs\\python\\python37-32\\lib\\site-packages\\requests\\auth.py',
   'PYMODULE'),
  ('requests.models',
   'c:\\users\\zack\\appdata\\local\\programs\\python\\python37-32\\lib\\site-packages\\requests\\models.py',
   'PYMODULE'),
  ('requests.packages',
   'c:\\users\\zack\\appdata\\local\\programs\\python\\python37-32\\lib\\site-packages\\requests\\packages.py',
   'PYMODULE'),
  ('requests.utils',
   'c:\\users\\zack\\appdata\\local\\programs\\python\\python37-32\\lib\\site-packages\\requests\\utils.py',
   'PYMODULE'),
  ('requests.certs',
   'c:\\users\\zack\\appdata\\local\\programs\\python\\python37-32\\lib\\site-packages\\requests\\certs.py',
   'PYMODULE'),
  ('certifi',
   'c:\\users\\zack\\appdata\\local\\programs\\python\\python37-32\\lib\\site-packages\\certifi\\__init__.py',
   'PYMODULE'),
  ('certifi.core',
   'c:\\users\\zack\\appdata\\local\\programs\\python\\python37-32\\lib\\site-packages\\certifi\\core.py',
   'PYMODULE'),
  ('importlib.resources',
   'c:\\users\\zack\\appdata\\local\\programs\\python\\python37-32\\lib\\importlib\\resources.py',
   'PYMODULE'),
  ('requests.__version__',
   'c:\\users\\zack\\appdata\\local\\programs\\python\\python37-32\\lib\\site-packages\\requests\\__version__.py',
   'PYMODULE'),
  ('urllib3.exceptions',
   'c:\\users\\zack\\appdata\\local\\programs\\python\\python37-32\\lib\\site-packages\\urllib3\\exceptions.py',
   'PYMODULE'),
  ('urllib3.contrib.pyopenssl',
   'c:\\users\\zack\\appdata\\local\\programs\\python\\python37-32\\lib\\site-packages\\urllib3\\contrib\\pyopenssl.py',
   'PYMODULE'),
  ('urllib3.packages.backports.makefile',
   'c:\\users\\zack\\appdata\\local\\programs\\python\\python37-32\\lib\\site-packages\\urllib3\\packages\\backports\\makefile.py',
   'PYMODULE'),
  ('urllib3.packages.backports',
   'c:\\users\\zack\\appdata\\local\\programs\\python\\python37-32\\lib\\site-packages\\urllib3\\packages\\backports\\__init__.py',
   'PYMODULE'),
  ('urllib3.contrib',
   'c:\\users\\zack\\appdata\\local\\programs\\python\\python37-32\\lib\\site-packages\\urllib3\\contrib\\__init__.py',
   'PYMODULE'),
  ('requests.exceptions',
   'c:\\users\\zack\\appdata\\local\\programs\\python\\python37-32\\lib\\site-packages\\requests\\exceptions.py',
   'PYMODULE'),
  ('urllib3',
   'c:\\users\\zack\\appdata\\local\\programs\\python\\python37-32\\lib\\site-packages\\urllib3\\__init__.py',
   'PYMODULE'),
  ('__future__',
   'c:\\users\\zack\\appdata\\local\\programs\\python\\python37-32\\lib\\__future__.py',
   'PYMODULE')],
 [('VCRUNTIME140.dll',
   'c:\\users\\zack\\appdata\\local\\programs\\python\\python37-32\\VCRUNTIME140.dll',
   'BINARY'),
  ('python37.dll',
   'c:\\users\\zack\\appdata\\local\\programs\\python\\python37-32\\python37.dll',
   'BINARY'),
  ('select',
   'c:\\users\\zack\\appdata\\local\\programs\\python\\python37-32\\DLLs\\select.pyd',
   'EXTENSION'),
  ('_socket',
   'c:\\users\\zack\\appdata\\local\\programs\\python\\python37-32\\DLLs\\_socket.pyd',
   'EXTENSION'),
  ('_ssl',
   'c:\\users\\zack\\appdata\\local\\programs\\python\\python37-32\\DLLs\\_ssl.pyd',
   'EXTENSION'),
  ('unicodedata',
   'c:\\users\\zack\\appdata\\local\\programs\\python\\python37-32\\DLLs\\unicodedata.pyd',
   'EXTENSION'),
  ('_bz2',
   'c:\\users\\zack\\appdata\\local\\programs\\python\\python37-32\\DLLs\\_bz2.pyd',
   'EXTENSION'),
  ('_lzma',
   'c:\\users\\zack\\appdata\\local\\programs\\python\\python37-32\\DLLs\\_lzma.pyd',
   'EXTENSION'),
  ('_hashlib',
   'c:\\users\\zack\\appdata\\local\\programs\\python\\python37-32\\DLLs\\_hashlib.pyd',
   'EXTENSION'),
  ('pyexpat',
   'c:\\users\\zack\\appdata\\local\\programs\\python\\python37-32\\DLLs\\pyexpat.pyd',
   'EXTENSION'),
  ('PIL._webp',
   'c:\\users\\zack\\appdata\\local\\programs\\python\\python37-32\\lib\\site-packages\\PIL\\_webp.cp37-win32.pyd',
   'EXTENSION'),
  ('PIL._imagingtk',
   'c:\\users\\zack\\appdata\\local\\programs\\python\\python37-32\\lib\\site-packages\\PIL\\_imagingtk.cp37-win32.pyd',
   'EXTENSION'),
  ('_decimal',
   'c:\\users\\zack\\appdata\\local\\programs\\python\\python37-32\\DLLs\\_decimal.pyd',
   'EXTENSION'),
  ('PIL._imaging',
   'c:\\users\\zack\\appdata\\local\\programs\\python\\python37-32\\lib\\site-packages\\PIL\\_imaging.cp37-win32.pyd',
   'EXTENSION'),
  ('_queue',
   'c:\\users\\zack\\appdata\\local\\programs\\python\\python37-32\\DLLs\\_queue.pyd',
   'EXTENSION'),
  ('libcrypto-1_1.dll',
   'c:\\users\\zack\\appdata\\local\\programs\\python\\python37-32\\DLLs\\libcrypto-1_1.dll',
   'BINARY'),
  ('libssl-1_1.dll',
   'c:\\users\\zack\\appdata\\local\\programs\\python\\python37-32\\DLLs\\libssl-1_1.dll',
   'BINARY')],
 [],
 [],
 [('base_library.zip',
   'C:\\Users\\Zack\\Documents\\Python\\cybv473_website_scraper\\build\\BossungZ_WK6_Assignment8\\base_library.zip',
   'DATA'),
  ('certifi\\cacert.pem',
   'c:\\users\\zack\\appdata\\local\\programs\\python\\python37-32\\lib\\site-packages\\certifi\\cacert.pem',
   'DATA')],
 [])
