('C:\\Users\\Zack\\Documents\\Python\\cybv473_website_scraper\\build\\BossungZ_WK6_Assignment8\\PKG-00.pkg',
 {'BINARY': 1,
  'DATA': 1,
  'EXECUTABLE': 1,
  'EXTENSION': 1,
  'PYMODULE': 1,
  'PYSOURCE': 1,
  'PYZ': 0},
 [('PYZ-00.pyz',
   'C:\\Users\\Zack\\Documents\\Python\\cybv473_website_scraper\\build\\BossungZ_WK6_Assignment8\\PYZ-00.pyz',
   'PYZ'),
  ('struct',
   'c:\\users\\zack\\appdata\\local\\programs\\python\\python37-32\\lib\\struct.pyo',
   'PYMODULE'),
  ('pyimod01_os_path',
   'c:\\users\\zack\\appdata\\local\\programs\\python\\python37-32\\lib\\site-packages\\PyInstaller\\loader\\pyimod01_os_path.pyc',
   'PYMODULE'),
  ('pyimod02_archive',
   'c:\\users\\zack\\appdata\\local\\programs\\python\\python37-32\\lib\\site-packages\\PyInstaller\\loader\\pyimod02_archive.pyc',
   'PYMODULE'),
  ('pyimod03_importers',
   'c:\\users\\zack\\appdata\\local\\programs\\python\\python37-32\\lib\\site-packages\\PyInstaller\\loader\\pyimod03_importers.pyc',
   'PYMODULE'),
  ('pyiboot01_bootstrap',
   'c:\\users\\zack\\appdata\\local\\programs\\python\\python37-32\\lib\\site-packages\\PyInstaller\\loader\\pyiboot01_bootstrap.py',
   'PYSOURCE'),
  ('pyi_rth_certifi',
   'c:\\users\\zack\\appdata\\local\\programs\\python\\python37-32\\lib\\site-packages\\PyInstaller\\loader\\rthooks\\pyi_rth_certifi.py',
   'PYSOURCE'),
  ('BossungZ_WK6_Assignment8',
   'C:\\Users\\Zack\\Documents\\Python\\cybv473_website_scraper\\BossungZ_WK6_Assignment8.py',
   'PYSOURCE'),
  ('VCRUNTIME140.dll',
   'c:\\users\\zack\\appdata\\local\\programs\\python\\python37-32\\VCRUNTIME140.dll',
   'BINARY'),
  ('python37.dll',
   'c:\\users\\zack\\appdata\\local\\programs\\python\\python37-32\\python37.dll',
   'BINARY'),
  ('select',
   'c:\\users\\zack\\appdata\\local\\programs\\python\\python37-32\\DLLs\\select.pyd',
   'EXTENSION'),
  ('_socket',
   'c:\\users\\zack\\appdata\\local\\programs\\python\\python37-32\\DLLs\\_socket.pyd',
   'EXTENSION'),
  ('_ssl',
   'c:\\users\\zack\\appdata\\local\\programs\\python\\python37-32\\DLLs\\_ssl.pyd',
   'EXTENSION'),
  ('unicodedata',
   'c:\\users\\zack\\appdata\\local\\programs\\python\\python37-32\\DLLs\\unicodedata.pyd',
   'EXTENSION'),
  ('_bz2',
   'c:\\users\\zack\\appdata\\local\\programs\\python\\python37-32\\DLLs\\_bz2.pyd',
   'EXTENSION'),
  ('_lzma',
   'c:\\users\\zack\\appdata\\local\\programs\\python\\python37-32\\DLLs\\_lzma.pyd',
   'EXTENSION'),
  ('_hashlib',
   'c:\\users\\zack\\appdata\\local\\programs\\python\\python37-32\\DLLs\\_hashlib.pyd',
   'EXTENSION'),
  ('pyexpat',
   'c:\\users\\zack\\appdata\\local\\programs\\python\\python37-32\\DLLs\\pyexpat.pyd',
   'EXTENSION'),
  ('PIL._webp',
   'c:\\users\\zack\\appdata\\local\\programs\\python\\python37-32\\lib\\site-packages\\PIL\\_webp.cp37-win32.pyd',
   'EXTENSION'),
  ('PIL._imagingtk',
   'c:\\users\\zack\\appdata\\local\\programs\\python\\python37-32\\lib\\site-packages\\PIL\\_imagingtk.cp37-win32.pyd',
   'EXTENSION'),
  ('_decimal',
   'c:\\users\\zack\\appdata\\local\\programs\\python\\python37-32\\DLLs\\_decimal.pyd',
   'EXTENSION'),
  ('PIL._imaging',
   'c:\\users\\zack\\appdata\\local\\programs\\python\\python37-32\\lib\\site-packages\\PIL\\_imaging.cp37-win32.pyd',
   'EXTENSION'),
  ('_queue',
   'c:\\users\\zack\\appdata\\local\\programs\\python\\python37-32\\DLLs\\_queue.pyd',
   'EXTENSION'),
  ('libcrypto-1_1.dll',
   'c:\\users\\zack\\appdata\\local\\programs\\python\\python37-32\\DLLs\\libcrypto-1_1.dll',
   'BINARY'),
  ('libssl-1_1.dll',
   'c:\\users\\zack\\appdata\\local\\programs\\python\\python37-32\\DLLs\\libssl-1_1.dll',
   'BINARY'),
  ('base_library.zip',
   'C:\\Users\\Zack\\Documents\\Python\\cybv473_website_scraper\\build\\BossungZ_WK6_Assignment8\\base_library.zip',
   'DATA'),
  ('certifi\\cacert.pem',
   'c:\\users\\zack\\appdata\\local\\programs\\python\\python37-32\\lib\\site-packages\\certifi\\cacert.pem',
   'DATA'),
  ('BossungZ_WK6_Assignment8.exe.manifest',
   'C:\\Users\\Zack\\Documents\\Python\\cybv473_website_scraper\\build\\BossungZ_WK6_Assignment8\\BossungZ_WK6_Assignment8.exe.manifest',
   'BINARY'),
  ('pyi-windows-manifest-filename BossungZ_WK6_Assignment8.exe.manifest',
   '',
   'OPTION')],
 False,
 False,
 False,
 [])
